compbio_project
…
#find out which gene id's are repeated

pre_6_7_w_means <- pre_6_7_giti_total %>% group_by(Gene.stable.ID) %>% summarise(mean_lenght = mean(length), mean_eff_lenght = mean(eff_length), mean_est_counts = mean(est_counts), mean_tpm = mean(tpm))
#make new column name

pre_6_7_w_means

## # A tibble: 17,894 x 5
##    Gene.stable.ID     mean_lenght mean_eff_lenght mean_est_counts mean_tpm
##    <fct>                    <dbl>           <dbl>           <dbl>    <dbl>
##  1 ENSTGUG00000000001        1434            1255               6     17.9
##  2 ENSTGUG00000000002        1525            1346              24     66.9
##  3 ENSTGUG00000000003        2630            2451               8     12.2
##  4 ENSTGUG00000000004         678             499               0      0  
##  5 ENSTGUG00000000005         504             325               0      0  
##  6 ENSTGUG00000000006        1863            1684               9     20.1
##  7 ENSTGUG00000000007        5148            4969              16     12.1
##  8 ENSTGUG00000000008         363             184               0      0  
##  9 ENSTGUG00000000010        1318            1139              51    168. 
## 10 ENSTGUG00000000011         504             325               1     11.5
## #  with 17,884 more rows
…
#find out which gene id's are repeated

post_6_7_w_means <- post_6_7_giti_total %>% group_by(Gene.stable.ID) %>% summarise(mean_lenght = mean(length), mean_eff_lenght = mean(eff_length), mean_est_counts = mean(est_counts), mean_tpm = mean(tpm))
#make new column name

post_6_7_w_means

## # A tibble: 17,894 x 5
##    Gene.stable.ID     mean_lenght mean_eff_lenght mean_est_counts mean_tpm
##    <fct>                    <dbl>           <dbl>           <dbl>    <dbl>
##  1 ENSTGUG00000000001        1434            1255              12     47.4
##  2 ENSTGUG00000000002        1525            1346              23     84.7
##  3 ENSTGUG00000000003        2630            2451              21     42.5
##  4 ENSTGUG00000000004         678             499               0      0  
##  5 ENSTGUG00000000005         504             325               0      0  
##  6 ENSTGUG00000000006        1863            1684              19     55.9
##  7 ENSTGUG00000000007        5148            4969              34     33.9
##  8 ENSTGUG00000000008         363             184               0      0  
##  9 ENSTGUG00000000010        1318            1139              47    205. 
## 10 ENSTGUG00000000011         504             325               2     30.5
## #  with 17,884 more rows
…
#find out which gene id's are repeated

post_8_w_means <- post_8_giti_total %>% group_by(Gene.stable.ID) %>% summarise(mean_lenght = mean(length), mean_eff_lenght = mean(eff_length), mean_est_counts = mean(est_counts), mean_tpm = mean(tpm))
#make new column name

post_8_w_means

## # A tibble: 17,894 x 5
##    Gene.stable.ID     mean_lenght mean_eff_lenght mean_est_counts mean_tpm
##    <fct>                    <dbl>           <dbl>           <dbl>    <dbl>
##  1 ENSTGUG00000000001        1434            1255               9     25.1
##  2 ENSTGUG00000000002        1525            1346              29     75.5
##  3 ENSTGUG00000000003        2630            2451              24     34.3
##  4 ENSTGUG00000000004         678             499               0      0  
##  5 ENSTGUG00000000005         504             325               0      0  
##  6 ENSTGUG00000000006        1863            1684              12     25.0
##  7 ENSTGUG00000000007        5148            4969              27     19.0
##  8 ENSTGUG00000000008         363             184               0      0  
##  9 ENSTGUG00000000010        1318            1139              47    145. 
## 10 ENSTGUG00000000011         504             325               0      0  
## #  with 17,884 more rows
…
#find out which gene id's are repeated

post_9_w_means <- post_9_giti_total %>% group_by(Gene.stable.ID) %>% summarise(mean_lenght = mean(length), mean_eff_lenght = mean(eff_length), mean_est_counts = mean(est_counts), mean_tpm = mean(tpm))
#make new column name

post_9_w_means

## # A tibble: 17,894 x 5
##    Gene.stable.ID     mean_lenght mean_eff_lenght mean_est_counts mean_tpm
##    <fct>                    <dbl>           <dbl>           <dbl>    <dbl>
##  1 ENSTGUG00000000001        1434            1255               8     32.0
##  2 ENSTGUG00000000002        1525            1346              13     48.5
##  3 ENSTGUG00000000003        2630            2451              10     20.5
##  4 ENSTGUG00000000004         678             499               0      0  
##  5 ENSTGUG00000000005         504             325               0      0  
##  6 ENSTGUG00000000006        1863            1684              11     32.8
##  7 ENSTGUG00000000007        5148            4969              14     14.2
##  8 ENSTGUG00000000008         363             184               2     54.6
##  9 ENSTGUG00000000010        1318            1139              34    150. 
## 10 ENSTGUG00000000011         504             325               0      0  
## #  with 17,884 more rows
…
#find out which gene id's are repeated

pre_8_w_means <- pre_8_giti_total %>% group_by(Gene.stable.ID) %>% summarise(mean_lenght = mean(length), mean_eff_lenght = mean(eff_length), mean_est_counts = mean(est_counts), mean_tpm = mean(tpm))
#make new column name

pre_8_w_means

## # A tibble: 17,894 x 5
##    Gene.stable.ID     mean_lenght mean_eff_lenght mean_est_counts mean_tpm
##    <fct>                    <dbl>           <dbl>           <dbl>    <dbl>
##  1 ENSTGUG00000000001        1434            1255               9    32.5 
##  2 ENSTGUG00000000002        1525            1346              17    57.3 
##  3 ENSTGUG00000000003        2630            2451               7    13.0 
##  4 ENSTGUG00000000004         678             499               1     9.09
##  5 ENSTGUG00000000005         504             325               0     0   
##  6 ENSTGUG00000000006        1863            1684              12    32.3 
##  7 ENSTGUG00000000007        5148            4969              24    21.9 
##  8 ENSTGUG00000000008         363             184               0     0   
##  9 ENSTGUG00000000010        1318            1139              34   135.  
## 10 ENSTGUG00000000011         504             325               3    41.9 
## #  with 17,884 more rows
…
#find out which gene id's are repeated

pre_9_w_means <- pre_9_giti_total %>% group_by(Gene.stable.ID) %>% summarise(mean_lenght = mean(length), mean_eff_lenght = mean(eff_length), mean_est_counts = mean(est_counts), mean_tpm = mean(tpm))
#make new column name

pre_9_w_means

## # A tibble: 17,894 x 5
##    Gene.stable.ID     mean_lenght mean_eff_lenght mean_est_counts mean_tpm
##    <fct>                    <dbl>           <dbl>           <dbl>    <dbl>
##  1 ENSTGUG00000000001        1434            1255              19    52.4 
##  2 ENSTGUG00000000002        1525            1346              32    82.3 
##  3 ENSTGUG00000000003        2630            2451              21    29.7 
##  4 ENSTGUG00000000004         678             499               1     6.94
##  5 ENSTGUG00000000005         504             325               0     0   
##  6 ENSTGUG00000000006        1863            1684               8    16.4 
##  7 ENSTGUG00000000007        5148            4969              31    21.6 
##  8 ENSTGUG00000000008         363             184               0     0   
##  9 ENSTGUG00000000010        1318            1139              44   134.  
## 10 ENSTGUG00000000011         504             325               5    53.3 
## #  with 17,884 more rows
…
